animation{
  name = "normal",
  src_image = "entities/mega_thwomp.png",
  directions = {
    { x = 0, y = 0, frame_width = 48, frame_height = 48, origin_x = 8, origin_y = 12 },
  },
}
animation{
  name = "falling",
  src_image = "entities/mega_thwomp.png",
  directions = {
    { x = 48, y = 0, frame_width = 48, frame_height = 48, origin_x = 8, origin_y = 12 },
  },
}
