animation{
  name = "visible",
  src_image = "entities/effects/thunder.png",
  directions = {
    { x = 64, y = 0, frame_width = 32, frame_height = 72, origin_x = 16, origin_y = 0 },
  },
}
animation{
  name = "appearing",
  src_image = "entities/effects/thunder.png",
  frame_delay = 50,
  directions = {
    { x = 0, y = 0, frame_width = 32, frame_height = 72, origin_x = 16, origin_y = 0, num_frames = 3 },
  },
}
